Intro to GHPM • GHPM
…
      ghpm.Rmd

GHPM is an R Package designed to make grabbing data from a Github Repository and performing analytics easy. It does this by providing a set of flexible functions that query important aspects of a repository (pullrequests, commits, issues, etc..) via the Github API and pipes the output into dataframes.

We can then use the powerful data manipulation tools that dplyr provides to create a resulting dataframe of the information we want.

This document is designed to introduce you to some of these functions and the analytical data that can be extracted. To explore this functionality, we will be using RStudio’s Shiny repository to grab data from.

Issues

Lets start with grabbing issues from shiny repo using the following command.

get_issues("rstudio", "shiny")
#> # A tibble: 286 x 6
#>    issue title                 body                 creator milestone state
#>    <dbl> <chr>                 <chr>                <chr>   <chr>     <chr>
#>  1     1 support additional c… "Our slider control… jjalla… <NA>      CLOS…
#>  2     2 implement multipleSe… ""                   jjalla… <NA>      CLOS…
#>  3     3 implement radioGroup… ""                   jjalla… <NA>      CLOS…
#>  4     4 head deduplication s… "Line-oriented dedu… jcheng5 <NA>      CLOS…
#>  5     5 single HTML widget i… ""                   jjalla… <NA>      CLOS…
#>  6     6 slider does not work… ""                   jjalla… 0.9.0     CLOS…
#>  7     7 improve adaptive ren… "Previous and next … jjalla… 0.10.0    CLOS…
#>  8     8 "custom UI html not … "I've tried custom … hafen   <NA>      CLOS…
#>  9     9 Feature request: Abi… ""                   jcheng5 <NA>      CLOS…
#> 10    10 Plots in tabsets not… "Hello,\nIf one mov… agalec… <NA>      CLOS…
#> # … with 276 more rows
…
get_issue_labels() - Grabs the labels attached to each issue

get_issue_assignees() - Grabs assignees assigned to each issue

get_issue_events() - Queries event data specific to issues being added and moved across project boards for each issue

get_issue_comments() - Grabs the comment data for each issue.

Pull Requests

Pull requests is another area where GHPM has a lot of flexibility. To just grab some basic information about pull requests, I can do the following:

get_all_pull_requests("rstudio", "shiny")
#> # A tibble: 100 x 10
#>    pullrequest title author body  milestone created_at          merged_by
#>          <dbl> <chr> <chr>  <chr> <chr>     <dttm>              <chr>    
#>  1          12 fixe… jeffr… just… <NA>      2012-08-17 23:13:14 jcheng5  
#>  2          28 Chan… wch    Usin… <NA>      2012-10-30 15:50:29 jcheng5  
#>  3          32 "sma… edwin… "Hi … <NA>      2012-11-08 22:20:09 jcheng5  
#>  4          49 For … wch    "Thi… <NA>      2012-12-03 21:00:57 jcheng5  
#>  5          50 Use … wch    This… <NA>      2012-12-03 21:02:35 <NA>     
#>  6          51 Allo… wch    "Thi… <NA>      2012-12-05 20:22:35 <NA>     
#>  7          62 Meth… wch    "Thi… <NA>      2012-12-19 19:52:32 <NA>     
#>  8          63 Wrap… wch    "The… <NA>      2012-12-20 06:37:09 <NA>     
#>  9          68 Add … wch    "Thi… <NA>      2013-01-04 21:49:29 <NA>     
#> 10          69 Fix … wch    "Thi… <NA>      2013-01-08 03:20:41 <NA>     
#> # … with 90 more rows, and 3 more variables: merged_at <dttm>,
#> #   merged_to <chr>, state <chr>
…
